{
  "project_info": {
    "project_number": "966998148441",
    "firebase_url": "https://pandicornios.firebaseio.com",
    "project_id": "pandicornios",
    "storage_bucket": "pandicornios.appspot.com"
  },
  "client": [
    {
      "client_info": {
        "mobilesdk_app_id": "1:966998148441:android:0b83421bcf19748f8d3848",
        "android_client_info": {
          "package_name": "pandi.ucbcba.bo"
        }
      },
      "oauth_client": [
        {
          "client_id": "966998148441-tg34t6v8v1342qaqa85hbkub1sq2821p.apps.googleusercontent.com",
          "client_type": 3
        }
      ],
      "api_key": [
        {
          "current_key": "AIzaSyA3M-9CD43EauXyne_VAt_MDHP0GMSPeLE"
        }
      ],
      "services": {
        "appinvite_service": {
          "other_platform_oauth_client": [
            {
              "client_id": "966998148441-tg34t6v8v1342qaqa85hbkub1sq2821p.apps.googleusercontent.com",
              "client_type": 3
            }
          ]
        }
      }
    }
  ],
  "configuration_version": "1"
}